eBird Best Practices: Modeling Relative Abundance - 1 eBird Data
…
Checkpoint

Take some time to explore the variables in the observation dataset. Notice that the EBD duplicates many of the checklist-level variables from the SED.

When we read the data into R, we used unique = FALSE and rollup = FALSE. By default the read functions in auk perform two important pre-processing steps: combining duplicate shared checklists and taxonomic rollup. We intentionally turned off this functionality for the purposes of demonstration.

2.2.1 Shared checklists

eBird allows users to share checklists with other eBirders in their group, for example this checklist is shared by 47 observers! These checklists can be identified by looking at the group_identifier variable, which assigns an ID connecting all checklists in the group.

checklists %>% 
  filter(!is.na(group_identifier)) %>% 
  arrange(group_identifier) %>% 
  select(sampling_event_identifier, group_identifier)
#> # A tibble: 162,127 × 2
#>   sampling_event_identifier group_identifier
#>   <chr>                     <chr>           
#> 1 S133890080                G10005231       
#> 2 S133784377                G10005231       
#> 3 S133893592                G10005466       
#> 4 S133893590                G10005466       
#> 5 S133897212                G10005766       
#> 6 S133883873                G10005766       
#> # ℹ 162,121 more rows
…
The observation_count variable has true counts as well as “X”s, which indicate that the species was detected but the number of individuals was not counted. auk_zerofill() adds a new binary column, species_observed, indicating whether or not the species was detected.

select(zf, observation_count, species_observed) %>% 
  head(10)
#> # A tibble: 10 × 2
#>   observation_count species_observed
#>   <chr>             <lgl>           
#> 1 0                 FALSE           
#> 2 0                 FALSE           
#> 3 0                 FALSE           
#> 4 0                 FALSE           
#> 5 0                 FALSE           
#> 6 0                 FALSE           
#> # ℹ 4 more rows

Let’s convert the “X”s to NAs and transform observation_count to an integer variable.

zf$observation_count <- if_else(zf$observation_count == "X", 
                                NA_character_, zf$observation_count) %>% 
  as.integer()
select(zf, observation_count, species_observed) %>% 
  head(10)
#> # A tibble: 10 × 2
#>   observation_count species_observed
#>               <int> <lgl>           
#> 1                 0 FALSE           
#> 2                 0 FALSE           
#> 3                 0 FALSE           
#> 4                 0 FALSE           
#> 5                 0 FALSE           
#> 6                 0 FALSE           
#> # ℹ 4 more rows
…
